Lab2/E2/E2.sim/sim_1/behav/xsim/tb_contador_prueba.vcd
$date
   Tue May  6 10:40:09 2025
$end
$version
  2019.1
$end
$timescale
  1ps
$end
$scope module tb_contador_prueba $end
$var reg 1 ! clk_i $end
$var reg 1 " btn_rst $end
$var reg 1 # btn_sync $end
$var reg 8 $ conta_o [7:0] $end
$var parameter 32 % SIM_TIME [31:0] $end
$scope module dut $end
$var wire 1 & clk_i $end
$var wire 1 ' btn_rst $end
$var wire 1 ( btn_sync $end
$var reg 8 $ conta_o [7:0] $end
$var reg 2 ) registro_EN_r [1:0] $end
$upscope $end
$upscope $end
$enddefinitions $end
#0
$dumpvars
0!
0"
0#
bx $
b1111101000 %
0&
0'
0(
bx )
$end
#5000
1!
b0 $
1&
bx0 )
#10000
0!
1"
1#
0&
1'
1(
#15000
1!
1&
b1 )
#20000
0!
0#
0&
0(
#25000
1!
1#
b1 $
1&
1(
b11 )
#30000
0!
0&
#35000
1!
0#
1&
0(
b10 )
#40000
0!
1#
0&
1(
#45000
1!
1&
b1 )
#50000
0!
0#
0&
0(
#55000
1!
1#
b10 $
1&
1(
b11 )
#60000
0!
0&
#65000
1!
0#
1&
0(
b10 )
#70000
0!
1#
0&
1(
#75000
1!
1&
b1 )
#80000
0!
0#
0&
0(
#85000
1!
b11 $
1&
b10 )
#90000
0!
0&
#95000
1!
1&
b0 )
