Lab2/E2/E2.sim/sim_1/behav/xsim/tb_DebouncerSync.vcd
$date
   Tue May  6 10:39:20 2025
$end
$version
  2019.1
$end
$timescale
  1ps
$end
$scope module tb_DebouncerSync $end
$var reg 1 ! clk_i $end
$var reg 1 " btn_raw $end
$var reg 1 # btn_sync $end
$var parameter 32 $ SIM_TIME [31:0] $end
$scope module dut $end
$var wire 1 % btn_raw $end
$var wire 1 & clk_i $end
$var reg 1 # btn_sync $end
$var reg 2 ' debounce_counter [1:0] $end
$var reg 1 ( btn_raw_prev $end
$var reg 1 ) sync_reg1 $end
$var reg 1 * sync_reg2 $end
$var parameter 32 + DEBOUNCE_CYCLES [31:0] $end
$upscope $end
$upscope $end
$enddefinitions $end
#0
$dumpvars
0!
0"
x#
b1111101000 $
0%
0&
b0 '
x(
x)
x*
b10 +
$end
#5000
1!
1&
0(
0)
#10000
0!
1"
1%
0&
#15000
1!
1&
b10 '
1(
1)
0*
#20000
0!
0&
#25000
1!
1&
b1 '
1*
#30000
0!
0&
#35000
1!
1&
b0 '
#40000
0!
0&
#45000
1!
1#
1&
#50000
0!
0&
#55000
1!
1&
#60000
0!
0"
0%
0&
#65000
1!
1&
b10 '
0(
0)
#70000
0!
0&
#75000
1!
1&
b1 '
0*
#80000
0!
0&
#85000
1!
1&
b0 '
#90000
0!
0&
#95000
1!
0#
1&
